G04 #@! TF.GenerationSoftware,KiCad,Pcbnew,(2018-01-26 revision 0d532b43d)-makepkg*
G04 #@! TF.CreationDate,2018-07-16T22:15:33-07:00*
G04 #@! TF.ProjectId,arduino-micro-usb-mod,61726475696E6F2D6D6963726F2D7573,rev?*
G04 #@! TF.SameCoordinates,PX8bb2288PY6b29fc0*
G04 #@! TF.FileFunction,Copper,L1,Top,Signal*
G04 #@! TF.FilePolarity,Positive*
%FSLAX46Y46*%
G04 Gerber Fmt 4.6, Leading zero omitted, Abs format (unit mm)*
G04 Created by KiCad (PCBNEW (2018-01-26 revision 0d532b43d)-makepkg) date 07/16/18 22:15:33*
%MOMM*%
%LPD*%
G01*
G04 APERTURE LIST*
%ADD10R,1.300000X0.700000*%
%ADD11R,1.380000X0.450000*%
%ADD12R,2.100000X1.475000*%
%ADD13R,1.900000X2.375000*%
%ADD14R,1.900000X1.175000*%
%ADD15C,1.520000*%
%ADD16C,2.700000*%
%ADD17C,0.250000*%
%ADD18C,0.254000*%
G04 APERTURE END LIST*
D10*
X9474200Y6893600D03*
X9474200Y4993600D03*
D11*
X13164200Y5024600D03*
X13164200Y5674600D03*
X13164200Y6324600D03*
X13164200Y6974600D03*
X13164200Y7624600D03*
D12*
X13524200Y3862100D03*
X13524200Y8787100D03*
D13*
X15824200Y3414600D03*
X15824200Y9234600D03*
D14*
X15824200Y5484600D03*
X15824200Y7164600D03*
D15*
X2019300Y4826000D03*
X2019300Y7366000D03*
X4019300Y7366000D03*
X4019300Y4826000D03*
D16*
X6719300Y96000D03*
X6719300Y12096000D03*
D17*
X2019300Y4826000D02*
X2019300Y4762500D01*
X2019300Y4762500D02*
X3124200Y3657600D01*
X3124200Y3657600D02*
X4648200Y3657600D01*
X4648200Y3657600D02*
X6738198Y5747598D01*
X6738198Y5747598D02*
X11194202Y5747598D01*
X11194202Y5747598D02*
X11267200Y5674600D01*
X11267200Y5674600D02*
X13164200Y5674600D01*
X2019300Y7366000D02*
X2209800Y7366000D01*
X2209800Y7366000D02*
X3378200Y6197600D01*
X3378200Y6197600D02*
X5156200Y6197600D01*
X5156200Y6197600D02*
X5664200Y6705600D01*
X5664200Y6705600D02*
X8204200Y6705600D01*
X8204200Y6705600D02*
X8392200Y6893600D01*
X8392200Y6893600D02*
X9474200Y6893600D01*
X4019300Y7366000D02*
X7594600Y7366000D01*
X11603200Y7624600D02*
X13164200Y7624600D01*
X11506200Y7721600D02*
X11603200Y7624600D01*
X7950200Y7721600D02*
X11506200Y7721600D01*
X7594600Y7366000D02*
X7950200Y7721600D01*
X4019300Y4826000D02*
X4800600Y4826000D01*
X11379200Y6324600D02*
X13164200Y6324600D01*
X11252200Y6197600D02*
X11379200Y6324600D01*
X6172200Y6197600D02*
X11252200Y6197600D01*
X4800600Y4826000D02*
X6172200Y6197600D01*
X9474200Y4993600D02*
X13133200Y4993600D01*
X13133200Y4993600D02*
X13164200Y5024600D01*
D18*
G36*
X5010518Y11011478D02*
X5313707Y10870012D01*
X5925695Y11482000D01*
X6284905Y11482000D01*
X5493312Y10690407D01*
X5634778Y10387218D01*
X6371255Y10102263D01*
X7160718Y10120836D01*
X7803822Y10387218D01*
X7945288Y10690407D01*
X7153695Y11482000D01*
X7512905Y11482000D01*
X8124893Y10870012D01*
X8428082Y11011478D01*
X8610135Y11482000D01*
X16282600Y11482000D01*
X16282600Y11057100D01*
X16109950Y11057100D01*
X15951200Y10898350D01*
X15951200Y9361600D01*
X15971200Y9361600D01*
X15971200Y9107600D01*
X15951200Y9107600D01*
X15951200Y7291600D01*
X15971200Y7291600D01*
X15971200Y7037600D01*
X15951200Y7037600D01*
X15951200Y5611600D01*
X15971200Y5611600D01*
X15971200Y5357600D01*
X15951200Y5357600D01*
X15951200Y3541600D01*
X15971200Y3541600D01*
X15971200Y3287600D01*
X15951200Y3287600D01*
X15951200Y1750850D01*
X16109950Y1592100D01*
X16282601Y1592100D01*
X16282601Y710000D01*
X8622978Y710000D01*
X8428082Y1180522D01*
X8124893Y1321988D01*
X7512905Y710000D01*
X7153695Y710000D01*
X7945288Y1501593D01*
X7803822Y1804782D01*
X7067345Y2089737D01*
X6277882Y2071164D01*
X5634778Y1804782D01*
X5493312Y1501593D01*
X6284905Y710000D01*
X5925695Y710000D01*
X5313707Y1321988D01*
X5010518Y1180522D01*
X4828465Y710000D01*
X710000Y710000D01*
X710000Y4341619D01*
X836676Y4035796D01*
X1229096Y3643376D01*
X1741817Y3431000D01*
X2275998Y3431000D01*
X2533871Y3173127D01*
X2576271Y3109671D01*
X2827663Y2941696D01*
X3049348Y2897600D01*
X3049352Y2897600D01*
X3124200Y2882712D01*
X3199048Y2897600D01*
X4573353Y2897600D01*
X4648200Y2882712D01*
X4723047Y2897600D01*
X4723052Y2897600D01*
X4944737Y2941696D01*
X5196129Y3109671D01*
X5238531Y3173130D01*
X5641751Y3576350D01*
X11839200Y3576350D01*
X11839200Y2998291D01*
X11935873Y2764902D01*
X12114501Y2586273D01*
X12347890Y2489600D01*
X13238450Y2489600D01*
X13397200Y2648350D01*
X13397200Y3735100D01*
X11997950Y3735100D01*
X11839200Y3576350D01*
X5641751Y3576350D01*
X7053000Y4987598D01*
X8176760Y4987598D01*
X8176760Y4643600D01*
X8226043Y4395835D01*
X8366391Y4185791D01*
X8576435Y4045443D01*
X8824200Y3996160D01*
X10124200Y3996160D01*
X10371965Y4045443D01*
X10582009Y4185791D01*
X10613954Y4233600D01*
X11839200Y4233600D01*
X11839200Y4147850D01*
X11997950Y3989100D01*
X13397200Y3989100D01*
X13397200Y4009100D01*
X13651200Y4009100D01*
X13651200Y3989100D01*
X13671200Y3989100D01*
X13671200Y3735100D01*
X13651200Y3735100D01*
X13651200Y2648350D01*
X13809950Y2489600D01*
X14239200Y2489600D01*
X14239200Y2100791D01*
X14335873Y1867402D01*
X14514501Y1688773D01*
X14747890Y1592100D01*
X15538450Y1592100D01*
X15697200Y1750850D01*
X15697200Y3287600D01*
X15677200Y3287600D01*
X15677200Y3541600D01*
X15697200Y3541600D01*
X15697200Y5357600D01*
X15677200Y5357600D01*
X15677200Y5611600D01*
X15697200Y5611600D01*
X15697200Y7037600D01*
X15677200Y7037600D01*
X15677200Y7291600D01*
X15697200Y7291600D01*
X15697200Y9107600D01*
X15677200Y9107600D01*
X15677200Y9361600D01*
X15697200Y9361600D01*
X15697200Y10898350D01*
X15538450Y11057100D01*
X14747890Y11057100D01*
X14514501Y10960427D01*
X14335873Y10781798D01*
X14239200Y10548409D01*
X14239200Y10159600D01*
X13809950Y10159600D01*
X13651200Y10000850D01*
X13651200Y8914100D01*
X13671200Y8914100D01*
X13671200Y8660100D01*
X13651200Y8660100D01*
X13651200Y8640100D01*
X13397200Y8640100D01*
X13397200Y8660100D01*
X11997950Y8660100D01*
X11839200Y8501350D01*
X11839200Y8413140D01*
X11802737Y8437504D01*
X11581052Y8481600D01*
X11581047Y8481600D01*
X11506200Y8496488D01*
X11431353Y8481600D01*
X8025046Y8481600D01*
X7950199Y8496488D01*
X7875352Y8481600D01*
X7875348Y8481600D01*
X7653663Y8437504D01*
X7402271Y8269529D01*
X7359871Y8206072D01*
X7279798Y8126000D01*
X5214435Y8126000D01*
X5201924Y8156204D01*
X4809504Y8548624D01*
X4296783Y8761000D01*
X3741817Y8761000D01*
X3229096Y8548624D01*
X3019300Y8338828D01*
X2809504Y8548624D01*
X2296783Y8761000D01*
X1741817Y8761000D01*
X1229096Y8548624D01*
X836676Y8156204D01*
X710000Y7850381D01*
X710000Y9650909D01*
X11839200Y9650909D01*
X11839200Y9072850D01*
X11997950Y8914100D01*
X13397200Y8914100D01*
X13397200Y10000850D01*
X13238450Y10159600D01*
X12347890Y10159600D01*
X12114501Y10062927D01*
X11935873Y9884298D01*
X11839200Y9650909D01*
X710000Y9650909D01*
X710000Y11482000D01*
X4815622Y11482000D01*
X5010518Y11011478D01*
X5010518Y11011478D01*
G37*
X5010518Y11011478D02*
X5313707Y10870012D01*
X5925695Y11482000D01*
X6284905Y11482000D01*
X5493312Y10690407D01*
X5634778Y10387218D01*
X6371255Y10102263D01*
X7160718Y10120836D01*
X7803822Y10387218D01*
X7945288Y10690407D01*
X7153695Y11482000D01*
X7512905Y11482000D01*
X8124893Y10870012D01*
X8428082Y11011478D01*
X8610135Y11482000D01*
X16282600Y11482000D01*
X16282600Y11057100D01*
X16109950Y11057100D01*
X15951200Y10898350D01*
X15951200Y9361600D01*
X15971200Y9361600D01*
X15971200Y9107600D01*
X15951200Y9107600D01*
X15951200Y7291600D01*
X15971200Y7291600D01*
X15971200Y7037600D01*
X15951200Y7037600D01*
X15951200Y5611600D01*
X15971200Y5611600D01*
X15971200Y5357600D01*
X15951200Y5357600D01*
X15951200Y3541600D01*
X15971200Y3541600D01*
X15971200Y3287600D01*
X15951200Y3287600D01*
X15951200Y1750850D01*
X16109950Y1592100D01*
X16282601Y1592100D01*
X16282601Y710000D01*
X8622978Y710000D01*
X8428082Y1180522D01*
X8124893Y1321988D01*
X7512905Y710000D01*
X7153695Y710000D01*
X7945288Y1501593D01*
X7803822Y1804782D01*
X7067345Y2089737D01*
X6277882Y2071164D01*
X5634778Y1804782D01*
X5493312Y1501593D01*
X6284905Y710000D01*
X5925695Y710000D01*
X5313707Y1321988D01*
X5010518Y1180522D01*
X4828465Y710000D01*
X710000Y710000D01*
X710000Y4341619D01*
X836676Y4035796D01*
X1229096Y3643376D01*
X1741817Y3431000D01*
X2275998Y3431000D01*
X2533871Y3173127D01*
X2576271Y3109671D01*
X2827663Y2941696D01*
X3049348Y2897600D01*
X3049352Y2897600D01*
X3124200Y2882712D01*
X3199048Y2897600D01*
X4573353Y2897600D01*
X4648200Y2882712D01*
X4723047Y2897600D01*
X4723052Y2897600D01*
X4944737Y2941696D01*
X5196129Y3109671D01*
X5238531Y3173130D01*
X5641751Y3576350D01*
X11839200Y3576350D01*
X11839200Y2998291D01*
X11935873Y2764902D01*
X12114501Y2586273D01*
X12347890Y2489600D01*
X13238450Y2489600D01*
X13397200Y2648350D01*
X13397200Y3735100D01*
X11997950Y3735100D01*
X11839200Y3576350D01*
X5641751Y3576350D01*
X7053000Y4987598D01*
X8176760Y4987598D01*
X8176760Y4643600D01*
X8226043Y4395835D01*
X8366391Y4185791D01*
X8576435Y4045443D01*
X8824200Y3996160D01*
X10124200Y3996160D01*
X10371965Y4045443D01*
X10582009Y4185791D01*
X10613954Y4233600D01*
X11839200Y4233600D01*
X11839200Y4147850D01*
X11997950Y3989100D01*
X13397200Y3989100D01*
X13397200Y4009100D01*
X13651200Y4009100D01*
X13651200Y3989100D01*
X13671200Y3989100D01*
X13671200Y3735100D01*
X13651200Y3735100D01*
X13651200Y2648350D01*
X13809950Y2489600D01*
X14239200Y2489600D01*
X14239200Y2100791D01*
X14335873Y1867402D01*
X14514501Y1688773D01*
X14747890Y1592100D01*
X15538450Y1592100D01*
X15697200Y1750850D01*
X15697200Y3287600D01*
X15677200Y3287600D01*
X15677200Y3541600D01*
X15697200Y3541600D01*
X15697200Y5357600D01*
X15677200Y5357600D01*
X15677200Y5611600D01*
X15697200Y5611600D01*
X15697200Y7037600D01*
X15677200Y7037600D01*
X15677200Y7291600D01*
X15697200Y7291600D01*
X15697200Y9107600D01*
X15677200Y9107600D01*
X15677200Y9361600D01*
X15697200Y9361600D01*
X15697200Y10898350D01*
X15538450Y11057100D01*
X14747890Y11057100D01*
X14514501Y10960427D01*
X14335873Y10781798D01*
X14239200Y10548409D01*
X14239200Y10159600D01*
X13809950Y10159600D01*
X13651200Y10000850D01*
X13651200Y8914100D01*
X13671200Y8914100D01*
X13671200Y8660100D01*
X13651200Y8660100D01*
X13651200Y8640100D01*
X13397200Y8640100D01*
X13397200Y8660100D01*
X11997950Y8660100D01*
X11839200Y8501350D01*
X11839200Y8413140D01*
X11802737Y8437504D01*
X11581052Y8481600D01*
X11581047Y8481600D01*
X11506200Y8496488D01*
X11431353Y8481600D01*
X8025046Y8481600D01*
X7950199Y8496488D01*
X7875352Y8481600D01*
X7875348Y8481600D01*
X7653663Y8437504D01*
X7402271Y8269529D01*
X7359871Y8206072D01*
X7279798Y8126000D01*
X5214435Y8126000D01*
X5201924Y8156204D01*
X4809504Y8548624D01*
X4296783Y8761000D01*
X3741817Y8761000D01*
X3229096Y8548624D01*
X3019300Y8338828D01*
X2809504Y8548624D01*
X2296783Y8761000D01*
X1741817Y8761000D01*
X1229096Y8548624D01*
X836676Y8156204D01*
X710000Y7850381D01*
X710000Y9650909D01*
X11839200Y9650909D01*
X11839200Y9072850D01*
X11997950Y8914100D01*
X13397200Y8914100D01*
X13397200Y10000850D01*
X13238450Y10159600D01*
X12347890Y10159600D01*
X12114501Y10062927D01*
X11935873Y9884298D01*
X11839200Y9650909D01*
X710000Y9650909D01*
X710000Y11482000D01*
X4815622Y11482000D01*
X5010518Y11011478D01*
M02*
