Title,USB Micro-B to B PCB Adapter,,,,,,,,,,,,,
Revision,1,,,,,,,,,,,,,
Date,2018-07-16,,,,,,,,,,,,,
Generated,9/6/2018 11:49:25 AM,,,,,,,,,,,,,
Company,Scott Alfter,,,,,,,,,,,,,
Comment 1,,,,,,,,,,,,,,
Comment 2,,,,,,,,,,,,,,
Comment 3,,,,,,,,,,,,,,
Comment 4,,,,,,,,,,,,,,
Total Parts,3,,,,,,,,,,,,,
Total Unique Parts,3,,,,,,,,,,,,,
,,,,,,,,,,,,,,
,,,,,,,,,,,,,,
,,,,,,,,,,,,,,
Ref,Qty,Value,Footprint,Critical,Description,JEDEC Pkg,Manufacturer,Mfr PN,Qty Per Unit,Subs OK?,Vendor 1 PN,Vendor 1 URL,Vendor 2 PN,Vendor 2 URL
J1 ,1,USB_B,Connectors:USB_B, , , , , , , , , , , 
J2 ,1,USB_OTG,Connectors_USB:USB_Micro-B_Molex_47346-0001,n,CONN USB MICRO B RECPT SMT R/A, ,Amphenol FCI,10118192-0001LF,1,y,649-10118192-0001LF,https://www.mouser.com/ProductDetail/Amphenol-FCI/10118192-0001LF?qs=%2fha2pyFadujgPm4iVaIQmAH7IEAODLQazmlVAs%2fyYaruZkWE0oGmeA%3d%3d,609-4613-1-ND,https://www.digikey.com/products/en?keywords=609-4613-1-ND
JP1 ,1,Jumper,Resistors_SMD:R_0805,n,Thick Film Resistors - SMD ZEROohms JUMPER,0805,KOA Speer,RK73Z2ATTD,1,y,660-RK73Z2ATTD,https://www.mouser.com/ProductDetail/KOA-Speer/RK73Z2ATTD?qs=sGAEpiMZZMu61qfTUdNhGxThjrFPLFHZ8v6adbCBvRk%3d, , 
,,,,,,,,,,,,,,
,,,,,,,,,,,,,,
,,,,,,,,,,,,,,
,,,,,,,,,,,,,,
BOM made with KICAD_BOM_WIZARD (https://github.com/HashDefineElectronics/KiCad_BOM_Wizard.git),,,,,,,,,,,,,,
Generated 9/6/2018 11:49:25 AM,,,,,,,,,,,,,,
